workshop_sf
…
schools_per_district <- schools_per_district %>%
  group_by(FEDENAME) %>%
  summarise(school_count = n())

(schools_per_district <- schools_per_district %>% 
  as_tibble() %>% 
  select(-geometry))

# A tibble: 23 × 2
   FEDENAME                  school_count
   <chr>                            <int>
 1 Burnaby North--Seymour              33
 2 Burnaby South                       32
 3 Cloverdale--Langley City            17
 4 Coquitlam--Port Coquitlam           40
 5 Delta                               29
 6 Fleetwood--Port Kells               33
 7 Langley--Aldergrove                 12
 8 New Westminster--Burnaby            38
 9 North Vancouver                     37
10 Pitt Meadows--Maple Ridge           23
# ℹ 13 more rows
…
